542311 529881 408
263301 745834 509
699065 561113 509
472124 65769 449
626714 204036 509
644358 411258 509
18369 220684 386
378660 665327 509
656589 322538 509
483502 549905 470
30044 85189 351
968576 986615 458
294897 308754 371
587814 84496 470
336511 75925 443
300837 512608 470
811219 238685 509
606873 114488 470
942807 171535 525
699072 332000 509
58191 136966 354
796059 97553 509
909977 909063 326
851322 718304 525
753636 353492 509
268483 203354 443
561872 834807 509
490433 251622 449
389726 569015 470
987731 889197 507
759059 663004 504
886357 786081 525
843250 900469 445
822824 382360 509
386822 525790 470
55778 653686 509
451455 218225 449
503118 104609 449
816984 531014 509
217860 28697 386
140298 479271 449
700898 27521 509
479248 939104 525
832249 824453 419
274526 104016 443
903861 356277 525
337808 959244 525
148241 3092 375
810040 604546 509
900186 407957 525
738663 709786 424
954367 318762 525
912431 403298 525
593663 305567 470
496396 676884 509
438582 655950 509
256984 544139 470
528136 352904 470
379858 701636 509
870335 446865 525
153355 351534 443
652503 706604 504
822683 293087 509
335968 243256 407
849884 514698 525
385863 979398 525
939408 129296 525
971350 542105 525
828113 131230 509
308944 795459 509
410927 255566 449
620614 70375 470
989684 29188 525
87034 216737 386
56900 938161 525
16024 875404 525
758180 423330 509
87473 4195 351
575092 92995 470
787887 860843 525
248100 396501 441
318006 458982 449
990865 253202 525
894978 260751 525
37127 900891 525
17069 460491 449
710581 849000 525
269365 455900 449
613725 996227 525
601269 35097 470
373046 369294 392
538446 871405 525
372217 762724 509
672089 456882 509
425636 324483 449
312924 929416 525
144135 653843 509
463611 988883 525
374329 997241 525
324136 14671 443
339750 863095 525
811965 200999 509
855721 74837 525
272948 864864 525
808748 911522 525
717358 790771 468
575539 965195 525
884628 413095 525
999277 59525 525
346579 374164 410
524275 713381 509
402314 8411 443
548024 503164 470
409552 745308 509
924890 64322 525
119892 459191 449
967796 703656 525
766872 618332 509
412436 584406 470
958948 897072 507
520705 850211 525
979601 386528 525
487370 837026 509
478187 644597 509
166818 785738 509
275601 97857 443
344466 617151 470
39534 975086 525
577512 796874 509
264753 384094 441
624622 144524 470
241704 502820 449
416373 173709 449
44692 263660 443
526094 345213 470
428277 414313 418
664521 433828 509
218439 717491 509
666648 51139 509
683864 356813 509
577776 787114 509
437440 552078 470
543965 898420 525
952303 178705 525
919237 221313 525
963477 537840 525
750185 117637 509
230548 481938 449
784410 442788 509
56127 502403 449
271005 75456 443
152292 262483 443
436593 983878 525
291656 692819 509
587988 844468 525
516797 826266 509
809538 266934 509
767524 285582 509
200690 475848 449
97173 723351 509
3884 969069 525
124509 499995 449
403032 704275 509
258365 900515 525
23919 432586 449
172430 993517 525
625793 541623 452
507266 459831 444
274073 854094 525
3687 549132 470
257353 216780 443
118906 487612 449
892284 189849 525
467153 493163 426
664517 438144 509
744917 456377 509
440058 687572 509
403146 758407 509
242553 303305 407
619411 409795 470
404834 35286 443
959377 226773 525
17032 796992 509
504461 36764 449
358063 35818 443
138578 663113 509
759440 857206 525
635229 674907 442
566408 814129 509
102632 386331 443
662771 333503 509
979284 482335 525
371631 680834 509
309735 73314 443
560021 148209 470
854983 188329 525
197964 353327 443
979188 566907 525
29765 724054 509
893737 80785 525
