567398 848443 525
378911 160654 443
659193 877271 525
904331 843429 445
657363 929626 525
297192 993782 525
505286 208474 449
438066 238969 449
948920 432730 525
277507 748000 509
468898 362113 449
42172 303113 443
865236 506109 525
673254 197019 509
593094 70264 470
449122 410110 418
539069 78922 470
320581 54727 443
235620 162448 443
676621 694141 442
202118 764633 509
597920 612049 403
167796 53410 383
480018 749781 509
851992 627522 525
8429 417029 449
452369 573041 470
303186 871324 525
275819 207236 443
802001 263474 509
562156 826715 509
366135 660959 509
609385 852120 525
667509 84145 509
13128 507270 449
167644 482660 449
768981 487389 509
771990 742649 468
778707 475434 509
984779 896416 507
356013 159957 443
847960 153526 525
921338 237048 525
370260 115352 443
941936 294907 525
599053 669584 509
59100 607535 470
59768 122253 354
538756 490570 470
55349 713565 509
119941 704534 509
987024 687532 525
25945 631015 509
12836 183978 383
307287 641843 509
373209 948801 525
447004 891119 525
992505 426668 525
755156 204247 509
45384 254291 443
925831 167469 525
329846 647963 509
871029 47729 525
782993 814434 468
668653 614863 509
878004 6030 525
511790 948711 525
630423 183890 509
275319 994842 525
884450 842996 432
100182 109294 354
340384 365112 441
925090 379271 525
368039 783702 509
203969 883645 525
533973 957377 525
251710 55137 443
502665 838470 525
515081 344109 470
435991 663124 509
684615 543780 509
826526 705375 468
458158 558919 470
128883 754698 509
290585 241885 407
14605 120024 354
699420 233198 509
713093 955656 525
26600 425032 449
893698 402270 525
272245 621886 470
522822 4704 470
787904 250377 509
766466 427061 509
728256 771073 468
26616 470335 449
728044 898 509
196918 867934 525
685656 946496 525
42462 837097 509
587255 234838 470
295231 966493 525
584764 97736 470
749855 255423 509
830159 573384 509
963597 3632 525
901804 363463 525
468780 180130 449
133480 147860 375
317345 391764 441
333732 651264 509
772461 935494 525
213639 817516 509
209238 611155 470
360088 433202 449
40911 521323 470
250869 466356 449
651858 527696 509
716203 447871 509
124376 729743 509
53359 654101 509
539677 102577 470
426844 656106 509
512887 233113 470
143449 228387 386
424898 843933 525
102532 497285 449
874717 848510 432
611563 945124 525
434352 676344 509
807759 533224 509
373458 90032 443
716595 434732 509
558595 726667 509
982349 688354 525
572175 924048 525
134526 480484 449
480533 277506 449
326155 916171 525
646897 990940 525
367395 667071 509
110789 431335 449
572336 621659 447
517233 990863 525
884900 427678 525
36666 456426 449
180066 764355 509
366318 400684 436
968242 735288 525
329490 646957 509
833825 216063 509
496110 115619 449
296788 658153 509
946624 426734 525
898992 447512 525
44170 786400 509
643160 220272 509
714459 624684 509
26660 565254 470
558326 32005 470
183759 183946 241
452315 973879 525
507397 44833 449
90472 574297 470
757026 826504 468
222207 683647 509
664546 205006 509
711434 656045 504
843998 751418 525
868117 195524 525
824880 303767 509
72566 627838 509
608036 233845 470
661944 483360 509
565268 527673 452
686817 879220 525
254548 539092 470
246783 661912 509
531658 374241 470
553313 346589 470
258015 62291 443
581064 325672 470
123816 133217 344
412835 231272 449
377244 512469 470
194654 589918 470
536414 661428 509
632231 520584 509
997958 558488 525
436171 479630 444
529816 593652 452
129270 327441 443
180011 544393 470
115594 845167 525
274145 521379 470
164764 972665 525
286912 177797 443
783358 54554 509
966344 857540 507
891742 480149 525
580343 668094 509
879956 331788 525
33178 477135 449
42392 535973 470
342063 701318 509
38922 215138 383
486530 474573 413
587249 730386 509
245223 569091 470
462706 415221 444
104979 126648 354
708186 821074 468
491090 331117 449
699258 116368 509
886618 157659 525
864101 907270 445
23413 222912 386
450217 765339 509
506642 114580 449
394837 103683 443
217708 377238 443
921161 326932 525
216241 142678 383
809894 292384 509
276360 977195 525
280220 968107 525
702853 616321 509
55320 642241 509
368995 732426 509
380318 7392 443
386321 22927 443
227742 997874 525
907810 541026 525
933018 574565 525
763259 657963 504
276323 920129 525
344045 510915 449
655551 56820 509
388074 954037 525
960059 311645 525
661091 156437 509
934263 927812 383
615424 883240 525
249654 969171 525
329793 577552 470
757735 859692 525
854341 850974 419
454834 353309 449
495841 260701 449
944212 925478 507
713558 656470 504
12432 397343 443
904163 341275 525
983907 173265 525
482564 396318 449
962618 146665 525
668649 580409 509
364182 434673 449
776440 362576 509
99188 848473 525
981195 632259 525
281062 116858 443
264387 127392 443
344776 979076 525
680301 487005 509
458843 916280 525
257278 444634 449
288354 467609 449
315291 896592 525
225975 845599 525
766328 233022 509
962672 274403 525
836422 755352 468
631136 752675 504
963888 188917 525
820573 486409 509
76880 797897 509
358118 347254 379
986354 183342 525
184773 159253 370
123541 723288 509
730341 89487 509
461358 546050 470
768214 659842 504
623840 83202 470
249406 387046 441
22741 600171 470
696896 777492 504
237771 212895 443
750485 662348 504
720902 522703 509
226157 676420 509
822400 815203 450
115040 673874 509
131098 632082 509
353319 142260 443
493742 452330 444
152562 433194 449
536138 634749 509
434051 146110 449
